238.0;1.0;Denmark;TDC-DK;
238.0;2.0;Denmark;Sonofon DK ;
238.0;3.0;Denmark;MIGway A/S DK ;
240.0;1.0;Sweden;Telia Sonera-SE;
240.0;2.0;Sweden;H3G-SE;
240.0;3.0;Sweden;AINMT Sverige AB SE ;
240.0;20.0;Sweden;iMEZ AB SE ;
240.0;21.0;Sweden;Banverket SE ;
302.0;36.0;Canada;Clearnet CA ;
302.0;37.0;Canada;Microcell CA ;
302.0;62.0;Canada;Ice Wireless CA ;
302.0;63.0;Canada;Aliant Mobility CA ;
310.0;10.0;United States of America;Verizon Wireless;
310.0;12.0;United States of America;Verizon Wireless;
310.0;13.0;United States of America;Verizon Wireless;
310.0;540.0;United States of America;Oklahoma Western Telephone Company US ;
310.0;550.0;United States of America;Wireless Solutions International US ;
310.0;560.0;United States of America;AT&T Mobility;
310.0;570.0;United States of America;MTPCS LLC US ;
310.0;580.0;United States of America;Inland Cellular Telephone Company US ;
310.0;590.0;United States of America;Verizon Wireless;
340.0;1.0;Guadeloupe-France;Orange-Caraibe;
340.0;2.0;Guadeloupe-France;Outremer Telecom GP ;
340.0;3.0;Guadeloupe-France;Saint Martin et Saint Barthelemy Telcell Sarl GP ;
344.0;30.0;Antigua and Barbuda;APUA PCS AG ;
344.0;920.0;Antigua and Barbuda;Cable & Wireless-Antigua AG ;
344.0;930.0;Antigua and Barbuda;AT&T Wireless-Antigua AG ;
405.0;0.0;India;Shyam Telelink Ltd-Rajasthan IN ;
405.0;1.0;India;Reliance Infocomm-IN;
405.0;3.0;India;Reliance Infocomm-IN;
405.0;4.0;India;Reliance Infocomm-IN;
405.0;5.0;India;Reliance Infocomm-IN;
440.0;9.0;Japan;NTT DoCoMo;
440.0;10.0;Japan;NTT DoCoMo;
440.0;11.0;Japan;NTT DoCoMo;
505.0;62.0;Australia;NBNCo Ltd AU ;
505.0;68.0;Australia;NBNCo Ltd AU ;
505.0;71.0;Australia;Telstra;
505.0;72.0;Australia;Telstra;
505.0;88.0;Australia;Localstar Holding Pty. Ltd. AU ;
505.0;90.0;Australia;Optus Ltd. AU ;
